<svg xmlns="http://www.w3.org/2000/svg" width="10" height="18">
 <defs>
  <clipPath>
   <rect width="10" height="19" x="20" y="1033.36" opacity="0.12" fill="#ad7fa8" color="#1a1a1a"/>
  </clipPath>
 </defs>
 <g transform="translate(0,-1034.3622)">
  <rect width="3" height="3" x="5" y="1042.36" rx="0.5" fill="#ffffff"/>
 </g>
</svg>
