<svg xmlns="http://www.w3.org/2000/svg" width="20" height="37">
 <defs>
  <clipPath>
   <rect y="1015.36" x="20" height="37" width="20" opacity="0.12" fill="#ad7fa8" color="#1a1a1a"/>
  </clipPath>
  <clipPath>
   <rect width="10" height="19" x="20" y="1033.36" opacity="0.12" fill="#ad7fa8" color="#1a1a1a"/>
  </clipPath>
  <clipPath>
   <rect width="20" height="37" x="20" y="1015.36" opacity="0.12" fill="#ad7fa8" color="#1a1a1a"/>
  </clipPath>
 </defs>
 <g transform="translate(0,-1015.3622)">
  <rect width="7" height="7" x="5" y="1030.36" rx="1" fill="#ffffff"/>
 </g>
</svg>
